{
	"version" : "0.1",
	"cards" : [
		{
			"name":"Baston",
			"type":"Arma",
			"effect":"Ataque +1"
		},
		{
			"name":"Cuchillo",
			"type":"Arma",
			"effect":"Al atacar, tus exitos cuentan sacando un número mayor a 2"
		},
		{
			"name":"Martillo",
			"type":"Arma",
			"effect":"Daño +1, Ataque -1"
		},
		{
			"name":"Espada",
			"type":"Arma",
			"effect":"Daño +1. Al atacar, tus exitos cuentan sacando un número mayor a 2"
		},
		{
			"name":"Nun-chuck",
			"type":"Arma",
			"effect":"Siempre que tires dados, puedes rehacer la tirada de uno de ellos"
		},
		{
			"name":"Arena",
			"type":"Utileria",
			"effect":"At: -1 Dado defensa a tu oponente / Def: -1 Dado ataque a tu oponente"
		},
		{
			"name":"Tabla",
			"type":"Utileria",
			"effect":"At: Ataque +1 / Def: Daño recibido -1"
		},
		{
			"name":"Columna",
			"type":"Utileria",
			"effect":"Def: Defensa +2. Descarta esta carta a la zona común"
		},
		{
			"name":"Jarrón",
			"type":"Utileria",
			"effect":"At: Daño +1, Ataque -1 / Def: Defensa +1"
		},
		{
			"name":"Piedra",
			"type":"Utileria",
			"effect":"At: Si ganas, el jugador defensor descarta una carta"
		},
		{
			"name":"Gong",
			"type":"Utileria",
			"effect":"Def: Si ganas, el atacante descarta dos cartas"
		},
		{
			"name":"Silla",
			"type":"Utileria",
			"effect":"At: Ataque +1 / Def: Defensa +1"
		},
		{
			"name":"Mesa",
			"type":"Utileria",
			"effect":"Def: Defensa +2"
		},
		{
			"name":"Desarmar",
			"type":"Táctica",
			"effect":"Pon el arma de un jugador en la zona de cartas comunes"
		},
		{
			"name":"Huir",
			"type":"Táctica",
			"effect":"Mezcla las cartas de la zona común con el mazo de objetos. Pon las primeras 6 cartas del mazo de objetos en la zona común. Roba una carta de un mazo a elección"
		},
		{
			"name":"Improvisar",
			"type":"Reacción",
			"effect":"Roba una carta del mazo de objetos y usala inmediatamente"
		},
		{
			"name":"Redireccionar",
			"type":"Reacción",
			"effect":"Def: Cambia el objetivo del ataque a un oponente distinto al atacante. Si no hay, niega el ataque"
		},
		{
			"name":"Finta",
			"type":"Táctica",
			"effect":"Ataca a un oponente. Puedes volver a tirar cada dado de ataque hasta una vez por este ataque"
		},
		{
			"name":"Golpe sorpresa",
			"type":"Táctica",
			"effect":"Ataca un oponente. Si ganas el combate, toma una carta de la zona común o del mazo de acciones"
		},
		{
			"name":"Frenesí",
			"type":"Táctica",
			"effect":"Realiza dos ataques, con -2 dados de ataque cada uno. Puedes elegir distintos oponentes para cada ataque"
		},
		{
			"name":"Contragolpe",
			"type":"Reacción",
			"effect":"Def: Si tu oponente gana el ataque, realiza un ataque contra él/ella con -1 dado de ataque"
		},
		{
			"name":"Juego de manos",
			"type":"Táctica",
			"effect":"Haz un ataque. Si ganas el combate, toma una carta de la mano de tu oponent. Niega todo el daño del ataque"
		},
		{
			"name":"Tres pasos adelantado",
			"type":"Táctica",
			"effect":"Mira las primeras 3 cartas del mazo de acciones. Pon una de ellas en tu mano y las otras arriba o abajo del mazo de acciones, en el orden que quieras"
		},
		{
			"name":"Combate justo",
			"type":"Táctica",
			"effect":"Elige una carta de la zona común y usala. Un oponente de tu elección busca un arma en el mazo de objetos y la usa. Ataca a ese oponente"
		},
		{
			"name":"Adrenalina",
			"type":"Táctica",
			"effect":"Ganas un punto de salud. Remueve esta carta del juego"
		},
		{
			"name":"Hurgar",
			"type":"Táctica",
			"effect":"Roba tres cartas del mazo de objetos. Descarta dos cartas de objetos a la zona común"
		}
	]
}